// Jest Snapshot v1, https://goo.gl/fbAQLP

exports[`<TableHeader /> should render with headers 1`] = `
<div
  className="table-header"
>
  <div
    className="resource resource_info_f1 table-head"
    key="resource_info_f1"
    onClick={[Function]}
  >
    <div
      className="header-display"
    >
      displayf1
    </div>
    <span
      className="header-description"
    >
      descriptionf1
    </span>
  </div>
  <div
    className="resource resource_info_f2 table-head"
    key="resource_info_f2"
    onClick={[Function]}
  >
    <div
      className="header-display"
    >
      displayf2
    </div>
    <span
      className="header-description"
    >
      descriptionf2
    </span>
  </div>
</div>
`;
