// Jest Snapshot v1, https://goo.gl/fbAQLP

exports[`<TableRow /> renders with data 1`] = `
<div
  className="table-row"
>
  <div
    className="table-cell"
    key="resource_info_f1"
  >
    !
  </div>
  <div
    className="table-cell"
    key="resource_info_f2"
  >
    !
  </div>
  <div
    className="table-cell"
    key="resource_info_f3"
  >
    !
  </div>
</div>
`;
